Chapter 13: Classification
…
Before we start

Here is the chapter titled Classification that this class is based on. Over the previous two weeks, we have worked with dependent variables which are continuous. This week, we work with models for the case when the dependent variable is binary: success/yes (Y=1) or failure/no (Y=0).

Scene 1

The data has been taken from the National Election Survey. Note that both ideology and party are measured in 7 point scales. ideology ranges from Strong liberal (1) to Strong Conservative (7). party ranges from Strong Democrat (1) to Strong Republican (7). income is measured on a 5 point scale ranging from very poor (1) to very rich (5). You may treat these variables as continuous. dvote is our outcome variable. It is whether (1) or not (0) the person prefers the Democratic candidate for President

Prompt:

Explore the data and see the variables for yourself. See if anything looks strange in the summary.

nes

## # A tibble: 6,653 x 7
##     year dvote party ideology income gender race 
##    <int> <int> <int>    <int>  <int> <fct>  <fct>
##  1  1972     0     6        5      3 male   White
##  2  1972     1     6        5      4 female White
##  3  1972     0     7        6      4 male   White
##  4  1972     0     2        4      4 male   White
##  5  1972     0     6        5      1 female White
##  6  1972     0     7        7      5 female White
##  7  1972     0     5        5      4 male   White
##  8  1972     0     7        6      4 female White
##  9  1972     0     3        4      3 male   White
## 10  1972     1     2        2      2 female Black
## #  with 6,643 more rows
…
